entrega2.2
…
cor(proc_data$sats_averde, proc_data$ingreso)

[1] 0.1717728

cor(proc_data$sats_conectividad, proc_data$ingreso)

[1] 0.03932531

cor(proc_data$sats_limpieza, proc_data$ingreso)

[1] 0.2182234

na.omit(proc_data)

# A tibble: 286 × 13
   sats_seguri…¹ sats_…² sats_…³ sats_…⁴ sats_…⁵ percp…⁶ percp…⁷ frq_v…⁸ ingreso
   <dbl+lbl>     <dbl+l> <dbl+l> <dbl+l> <dbl+l> <dbl+l> <dbl+l> <dbl+l> <dbl+l>
 1 2 [Insatisfe… 4 [Sat… 2 [Ins… 2 [Ins… 3 [Ni … 1 [Muy… 2 [Ins… 5 [Sie…  970000
 2 4 [Satisfech… 4 [Sat… 4 [Sat… 4 [Sat… 4 [Sat… 2 [Neg… 2 [Ins… 1 [Nun…  600000
 3 4 [Satisfech… 4 [Sat… 4 [Sat… 4 [Sat… 4 [Sat… 4 [Pos… 4 [Seg… 1 [Nun… 1000000
 4 4 [Satisfech… 4 [Sat… 2 [Ins… 2 [Ins… 3 [Ni … 4 [Pos… 5 [Muy… 1 [Nun…  630000
 5 4 [Satisfech… 4 [Sat… 5 [Tot… 4 [Sat… 4 [Sat… 4 [Pos… 5 [Muy… 2 [Poc… 2300000
 6 2 [Insatisfe… 4 [Sat… 4 [Sat… 3 [Ni … 3 [Ni … 2 [Neg… 3 [Ni … 4 [Muc… 1000000
 7 3 [Ni satisf… 5 [Tot… 2 [Ins… 4 [Sat… 4 [Sat… 3 [Ni … 3 [Ni … 1 [Nun…  750000
 8 2 [Insatisfe… 4 [Sat… 4 [Sat… 2 [Ins… 4 [Sat… 3 [Ni … 3 [Ni … 2 [Poc…  750000
 9 5 [Totalment… 4 [Sat… 4 [Sat… 4 [Sat… 5 [Tot… 4 [Pos… 5 [Muy… 1 [Nun…  400000
10 3 [Ni satisf… 3 [Ni … 4 [Sat… 2 [Ins… 4 [Sat… 3 [Ni … 3 [Ni … 2 [Poc… 1000000
# … with 276 more rows, 4 more variables: comuna <chr>, region <chr>,
#   edad <dbl+lbl>, sexo <dbl+lbl>, and abbreviated variable names
#   ¹​sats_seguridad, ²​sats_conectividad, ³​sats_averde, ⁴​sats_limpieza,
#   ⁵​sats_colegios, ⁶​percp_barrio, ⁷​percp_seguridad, ⁸​frq_vecinosbasura
…
